fars_function
…
Min Park

2020-06-01

This vignette briefly show the steps from loading Fatality Analysis Reporting System (FARS) data to several analyses including geographical plots

library(fars)

Read data

The function fars_read_years reads data of specific year and return tibbles for vectors of that year. This function uses related helper functions including fars_read and make_filename.

fars_read_years(2013)
#> [[1]]
#> # A tibble: 30,202 x 2
#>    MONTH  year
#>    <dbl> <dbl>
#>  1     1  2013
#>  2     1  2013
#>  3     1  2013
#>  4     1  2013
#>  5     1  2013
#>  6     1  2013
#>  7     1  2013
#>  8     1  2013
#>  9     1  2013
#> 10     1  2013
#> # … with 30,192 more rows
…
